flags_engine,scalar,U08,,1.0,0.0,Engine,0
flag_ready,bits,U08,flags_engine,0,,,
flag_crank,bits,U08,flags_engine,1,,,
flag_ase,bits,U08,flags_engine,2,,,
flag_warmup,bits,U08,flags_engine,3,,,
flag_tpsaen,bits,U08,flags_engine,4,,,
flag_tpsden,bits,U08,flags_engine,5,,,
flag_mapaen,bits,U08,flags_engine,6,,,
flag_mapden,bits,U08,flags_engine,7,,,
,,,,,,,
rpm,scalar,S16,RPM,1.0,0.0,RPM,0
engineLoad,scalar,U16,kPa,0.1,0.0,Load,1
inj1ActualPw,scalar,U16,deg,0.001,0.0,Fuel:${title},3
inj2ActualPw,scalar,U16,deg,0.001,0.0,Fuel:${title},3
,,,,,,,
flags_status1,scalar,U08,,1.0,0.0,Flags Status1,0
flag_full_sync,bits,U08,flags_status1,0,,,
flag_half_sync,bits,U08,flags_status1,1,,,
flag_need_burn,bits,U08,flags_status1,2,,,
flag_idle,bits,U08,flags_status1,3,,,
flag_fan,bits,U08,flags_status1,4,,,
flag_run,bits,U08,flags_status1,5,,,
flag_sft_limit,bits,U08,flags_status1,6,,Soft Limit,
flag_hrd_limit,bits,U08,flags_status1,7,,Hard Limit,
,,,,,,,
teeth_per_event,scalar,S16,x,1.0,0.0,Crank multiplier,0
crank_angle_err,scalar,S16,ticks,1.0,0.0,Crank angle err,0
req_pw,scalar,U16,ms,0.001,0.0,Fuel:Req PW,3
debug,scalar,U16,,1.0,0.0,debug,0
pw,scalar,U16,ms,0.001,0.0,Fuel:PW,3
advance,scalar,S16,deg,0.1,0.0,Spark:Advance,1
dwell,scalar,U16,ms,0.001,0.0,Spark:Dwell,3
open_time,scalar,U16,ms,0.001,0.0,Fuel:OpenTime,3
n_squirts,scalar,U08,,1.0,0.0,N Squirts,0
brvADC,scalar,U16,,1.0,0.0,ADCbrv,0
mapADC,scalar,U16,,1.0,0.0,ADCmap,0
matADC,scalar,U16,,1.0,0.0,ADCmat,0
cltADC,scalar,U16,,1.0,0.0,ADCclt,0
tpsADC,scalar,U16,,1.0,0.0,ADCtps,0
egoADC,scalar,U16,,1.0,0.0,ADCego,0
adc6,scalar,U16,,1.0,0.0,ADC6,0
adc7,scalar,U16,,1.0,0.0,ADC7,0
brv,scalar,U16,V,0.1,0.0,BRV,1
map,scalar,U16,kPa,0.1,0.0,MAP,1
tps,scalar,U08,%,1.0,0.0,TPS,0
ign1ActualPw,scalar,U16,ms,0.001,0.0,Spark:${title},3
ign2ActualPw,scalar,U16,ms,0.001,0.0,Spark:${title},3
loop_speed,scalar,U16,Hz,1.0,0.0,loop speed,0
clt,scalar,U16,deg C,0.1,0.0,CLT,1
mat,scalar,U16,deg C,0.1,0.0,MAT,1
inj1Period,scalar,U16,ms,0.001,0.0,Fuel:${title},3
inj2Period,scalar,U16,ms,0.001,0.0,Fuel:${title},3
ign1Period,scalar,U16,ms,0.001,0.0,Spark:${title},3
ign2Period,scalar,U16,ms,0.001,0.0,Spark:${title},3
seconds,scalar,U16,s,1.0,0.0,Seconds,0
,,,,,,,
flags_status2,scalar,U08,,1.0,0.0,Flags Status2,0
fp_on,bits,U08,flags_status2,0,,,
fp_primed,bits,U08,flags_status2,1,,,
decel_fuel_cut,bits,U08,flags_status2,2,,Decel Cut,
clutch_in,bits,U08,flags_status2,3,,Clutch,
launch_arm,bits,U08,flags_status2,4,,,
launch_active,bits,U08,flags_status2,5,,,
flag_floodclear,bits,U08,flags_status2,6,,,
,,,,,,,
warmup_enrich,scalar,U16,%,0.1,0.0,Fuel:${title},1
enrich_ase,scalar,U16,%,0.1,0.0,Fuel:${title},1
idle_target,scalar,U16,rpm,25.0,0.0,Idle Target,0
total_cor,scalar,U16,%,0.1,0.0,Fuel:${title},1
limiter_level_inj,scalar,U08,%,{100/255},0.0,${title},1
limiter_level_ign,scalar,U08,%,{100/255},0.0,${title},1
ego_tgt,scalar,U16,Air:Fuel,{1/512},0.0,EGO Target,3
ego,scalar,U16,Air:Fuel,{1/1024},0.0,EGO,3
mapdot,scalar,S16,kPa/s,1.0,0.0,MAPdot,0
accel_enrich,scalar,U16,ms,0.001,0.0,Accel Enrich,3
accel_timeout,scalar,U08,ms,0.01,0.0,Accel Timeout,2
stack_pointer,scalar,U16,,1.0,0.0,,
airden_cor,scalar,U16,%,{100/1024},0.0,Fuel:${title},1
cranking_pw,scalar,U16,ms,0.001,0.0,${title},3
vss_delta,scalar,U16,ticks,1.0,0.0,VSS Delta,0
,,,,,,,
time,calc,timeNow,,,,Time,3
inj_duty_cycle,calc,pw * rpm * n_squirts / 1200,,,,${title},1
ign_duty_cycle,calc,dwell * rpm * n_squirts / 1200,,,,${title},1
adc0_volts,calc,5 * brvADC / 1023,,,,,
adc1_volts,calc,5 * mapADC / 1023,,,,,
adc2_volts,calc,5 * matADC / 1023,,,,,
adc3_volts,calc,5 * cltADC / 1023,,,,,
adc4_volts,calc,5 * tpsADC / 1023,,,,,
adc5_volts,calc,5 * egoADC / 1023,,,,,
adc6_volts,calc,5 * adc6 / 1023,,,,,
adc7_volts,calc,5 * adc7 / 1023,,,,,
loopsPerCycle,calc,loop_speed * 120 / rpm,,,,${title},1
engine_freq,calc,rpm / 60,,,,,
limiter_level,calc,limiter_level_inj > limiter_level_ign ? limiter_level_inj : limiter_level_ign,,,,,
afr,calc,ego * stoich,,,,AFR,2
afr_tgt,calc,ego_tgt * stoich,,,,AFR Target,2
fuel_error,calc,ego ? (ego_tgt * 100 / ego) - 100 : 0,,,,,
pw_target,calc,ego_tgt ? req_pw * ego / ego_tgt : req_pw,,,,PW Target,3
log_ve_res,calc,ve_res,,,,Fuel:VE Res,1
vehicule_speed,calc,vss_delta ? vss_ratio / vss_delta : 0,,,,${title},0
